,date,city,rent,product
0,2018-01-01,Tekirdağ,3,1957
1,2018-01-02,Bolu,8,1149
2,2018-01-03,Adıyaman,14,1621
3,2018-01-04,Uşak,13,1436
4,2018-01-05,Artvin,12,1114
5,2018-01-06,Şanlıurfa,9,1536
6,2018-01-07,Adana,5,1051
7,2018-01-08,Zonguldak,12,1293
8,2018-01-09,İstanbul,17,1412
9,2018-01-10,Ordu,6,1095
10,2018-01-11,Kars,12,1446
11,2018-01-12,Sakarya,4,1318
12,2018-01-13,Çanakkale,1,1234
13,2018-01-14,Tokat,12,1157
14,2018-01-15,Zonguldak,14,1538
15,2018-01-16,İstanbul,10,1865
16,2018-01-17,Rize,4,1835
17,2018-01-18,Rize,1,1153
18,2018-01-19,Artvin,5,1107
19,2018-01-20,Denizli,14,1360
20,2018-01-21,Bingöl,8,1609
21,2018-01-22,Antalya,1,1597
22,2018-01-23,Erzurum,11,1550
23,2018-01-24,Kayseri,13,1170
24,2018-01-25,Afyon,1,1696
25,2018-01-26,Diyarbakır,11,1579
26,2018-01-27,Adıyaman,16,1321
27,2018-01-28,Ordu,5,1267
28,2018-01-29,Bolu,16,1776
29,2018-01-30,Ankara,2,1237
30,2018-01-31,Nevşehir,12,1682
31,2018-02-01,Yalova,15,1910
32,2018-02-02,Adıyaman,4,1479
33,2018-02-03,Karaman,16,1330
34,2018-02-04,Rize,16,1302
35,2018-02-05,Rize,8,1258
36,2018-02-06,Siirt,13,1824
37,2018-02-07,İstanbul,4,1949
38,2018-02-08,Antalya,1,1295
39,2018-02-09,Rize,17,1637
40,2018-02-10,Tunceli,7,1695
41,2018-02-11,Düzce,9,1614
42,2018-02-12,Zonguldak,13,1460
43,2018-02-13,Amasya,11,1334
44,2018-02-14,Antalya,7,1033
45,2018-02-15,Çorum,17,1609
46,2018-02-16,Sakarya,8,1762
47,2018-02-17,Gümüşhane,3,1223
48,2018-02-18,Aksaray,7,1634
49,2018-02-19,Şanlıurfa,10,1568
50,2018-02-20,Tunceli,1,1948
51,2018-02-21,Niğde,8,1653
52,2018-02-22,Ardahan,16,1627
53,2018-02-23,Kilis,10,1872
54,2018-02-24,Düzce,4,1972
55,2018-02-25,Nevşehir,9,1799
56,2018-02-26,İçel (Mersin),16,1189
57,2018-02-27,Şanlıurfa,11,1077
58,2018-02-28,Amasya,7,1552
59,2018-03-01,Kırıkkale,4,1688
60,2018-03-02,Elazığ,10,1280
61,2018-03-03,Eskişehir,3,1930
62,2018-03-04,Malatya,6,1166
63,2018-03-05,Uşak,6,1451
64,2018-03-06,Bitlis,1,1130
65,2018-03-07,Muş,12,1040
66,2018-03-08,Sakarya,14,1426
67,2018-03-09,Erzurum,7,1290
68,2018-03-10,Siirt,5,1618
69,2018-03-11,Bingöl,9,1066
70,2018-03-12,Kırklareli,10,1439
71,2018-03-13,Bilecik,5,1078
72,2018-03-14,Bartın,12,1186
73,2018-03-15,İstanbul,13,1660
74,2018-03-16,Edirne,11,1088
75,2018-03-17,Mardin,7,1586
76,2018-03-18,Osmaniye,10,1700
77,2018-03-19,Kayseri,4,1265
78,2018-03-20,Rize,8,1379
79,2018-03-21,Bolu,7,1775
80,2018-03-22,Adana,3,1139
81,2018-03-23,Bolu,17,1430
82,2018-03-24,İstanbul,15,1870
83,2018-03-25,Denizli,10,1200
84,2018-03-26,Siirt,14,1812
85,2018-03-27,Bartın,6,1000
86,2018-03-28,Kastamonu,7,1938
87,2018-03-29,İstanbul,11,1737
88,2018-03-30,Ankara,4,1200
89,2018-03-31,Çankırı,3,1256
90,2018-04-01,Şırnak,7,1698
91,2018-04-02,Niğde,5,1636
92,2018-04-03,Trabzon,10,1821
93,2018-04-04,Bingöl,13,1549
94,2018-04-05,Yalova,9,1262
95,2018-04-06,Isparta,8,1776
96,2018-04-07,Niğde,7,1220
97,2018-04-08,Muş,5,1640
98,2018-04-09,Kahramanmaraş,4,1522
99,2018-04-10,Kocaeli,2,1655
100,2018-04-11,Van,17,1270
101,2018-04-12,Erzurum,13,1133
102,2018-04-13,Muğla,2,1387
103,2018-04-14,Çanakkale,7,1127
104,2018-04-15,Düzce,16,1107
105,2018-04-16,Sinop,6,1709
106,2018-04-17,Hatay,14,1985
107,2018-04-18,Balıkesir,13,1631
108,2018-04-19,Giresun,8,1959
109,2018-04-20,Uşak,15,1297
110,2018-04-21,Gümüşhane,16,1569
111,2018-04-22,Bilecik,3,1316
112,2018-04-23,Trabzon,14,1629
113,2018-04-24,Eskişehir,14,1623
114,2018-04-25,Bilecik,16,1369
115,2018-04-26,Rize,12,1794
116,2018-04-27,Adıyaman,4,1418
117,2018-04-28,Aydın,17,1328
118,2018-04-29,Ardahan,10,1001
119,2018-04-30,Adana,3,1604
120,2018-05-01,Zonguldak,8,1889
121,2018-05-02,Zonguldak,9,1359
122,2018-05-03,Sakarya,3,1031
123,2018-05-04,Amasya,13,1956
124,2018-05-05,Rize,15,1760
125,2018-05-06,Kırklareli,4,1415
126,2018-05-07,Amasya,1,1570
127,2018-05-08,Muğla,4,1817
128,2018-05-09,Gaziantep,1,1637
129,2018-05-10,Siirt,2,1473
130,2018-05-11,Kırıkkale,9,1723
131,2018-05-12,Kilis,7,1906
132,2018-05-13,Bingöl,3,1140
133,2018-05-14,Bitlis,8,1626
134,2018-05-15,Bartın,13,1519
135,2018-05-16,Osmaniye,15,1985
136,2018-05-17,Bartın,15,1380
137,2018-05-18,İstanbul,7,1838
138,2018-05-19,Isparta,4,1144
139,2018-05-20,İçel (Mersin),3,1509
140,2018-05-21,Kars,8,1860
141,2018-05-22,Ardahan,3,1439
142,2018-05-23,Bartın,9,1474
143,2018-05-24,Niğde,17,1507
144,2018-05-25,Erzurum,7,1653
145,2018-05-26,Edirne,3,1338
146,2018-05-27,Adıyaman,11,1213
147,2018-05-28,Kastamonu,8,1667
148,2018-05-29,Tunceli,3,1748
149,2018-05-30,Isparta,6,1221
150,2018-05-31,Artvin,8,1236
151,2018-06-01,Karaman,7,1905
152,2018-06-02,Tunceli,2,1959
153,2018-06-03,Konya,2,1100
154,2018-06-04,Yozgat,2,1153
155,2018-06-05,Çankırı,14,1264
156,2018-06-06,İzmir,10,1704
157,2018-06-07,Diyarbakır,17,1645
158,2018-06-08,Bingöl,9,1264
159,2018-06-09,Ağrı,12,1478
160,2018-06-10,Sakarya,4,1741
161,2018-06-11,Bilecik,11,1719
162,2018-06-12,Gümüşhane,6,1213
163,2018-06-13,Samsun,2,1705
164,2018-06-14,Aydın,10,1021
165,2018-06-15,Eskişehir,14,1051
166,2018-06-16,Bitlis,7,1277
167,2018-06-17,Zonguldak,15,1472
168,2018-06-18,Mardin,9,1209
169,2018-06-19,Karabük,3,1452
170,2018-06-20,Malatya,17,1312
171,2018-06-21,Denizli,16,1317
172,2018-06-22,Zonguldak,3,1066
173,2018-06-23,Kütahya,1,1717
174,2018-06-24,Burdur,8,1072
175,2018-06-25,Isparta,4,1760
176,2018-06-26,Çankırı,4,1928
177,2018-06-27,Kars,6,1011
178,2018-06-28,Ağrı,9,1706
179,2018-06-29,Nevşehir,11,1068
180,2018-06-30,Nevşehir,15,1299
181,2018-07-01,Kırklareli,7,1305
182,2018-07-02,Van,10,1554
183,2018-07-03,Tunceli,17,1791
184,2018-07-04,Muş,17,1803
185,2018-07-05,Niğde,1,1575
186,2018-07-06,Kilis,17,1676
187,2018-07-07,Bartın,5,1412
188,2018-07-08,İstanbul,17,1257
189,2018-07-09,Bursa,16,1212
190,2018-07-10,Aydın,11,1807
191,2018-07-11,Kilis,5,1399
192,2018-07-12,Çankırı,13,1214
193,2018-07-13,Tokat,3,1045
194,2018-07-14,Şırnak,3,1134
195,2018-07-15,Artvin,9,1329
196,2018-07-16,Sakarya,6,1516
197,2018-07-17,Iğdır,11,1564
198,2018-07-18,Iğdır,14,1567
199,2018-07-19,Ağrı,16,1529
200,2018-07-20,Amasya,12,1142
201,2018-07-21,Mardin,15,1615
202,2018-07-22,Nevşehir,12,1572
203,2018-07-23,Muş,2,1110
204,2018-07-24,İzmir,3,1382
205,2018-07-25,Kayseri,11,1032
206,2018-07-26,Sivas,17,1106
207,2018-07-27,Niğde,15,1174
208,2018-07-28,Yalova,11,1763
209,2018-07-29,Kahramanmaraş,17,1050
210,2018-07-30,Kırıkkale,9,1189
211,2018-07-31,Kütahya,8,1284
212,2018-08-01,Batman,17,1150
213,2018-08-02,Adana,3,1610
214,2018-08-03,Kastamonu,11,1772
215,2018-08-04,Eskişehir,15,1075
216,2018-08-05,Konya,6,1771
217,2018-08-06,Erzincan,4,1463
218,2018-08-07,Kayseri,15,1333
219,2018-08-08,Bilecik,3,1379
220,2018-08-09,Muş,15,1005
221,2018-08-10,Ardahan,3,1004
222,2018-08-11,Amasya,11,1602
223,2018-08-12,Bartın,13,1392
224,2018-08-13,Zonguldak,14,1388
225,2018-08-14,Van,10,1237
226,2018-08-15,Batman,13,1049
227,2018-08-16,Amasya,17,1955
228,2018-08-17,Nevşehir,4,1311
229,2018-08-18,Bursa,15,1353
230,2018-08-19,Kırşehir,10,1137
231,2018-08-20,Bayburt,11,1749
232,2018-08-21,Giresun,15,1390
233,2018-08-22,Zonguldak,7,1287
234,2018-08-23,Karabük,10,1423
235,2018-08-24,Kahramanmaraş,15,1172
236,2018-08-25,Kırklareli,9,1976
237,2018-08-26,Sivas,2,1848
238,2018-08-27,Ardahan,12,1929
239,2018-08-28,Denizli,1,1535
240,2018-08-29,Artvin,3,1228
241,2018-08-30,Düzce,6,1726
242,2018-08-31,Çankırı,16,1375
243,2018-09-01,Rize,2,1403
244,2018-09-02,Çorum,13,1675
245,2018-09-03,Gümüşhane,1,1853
246,2018-09-04,Aydın,1,1355
247,2018-09-05,Samsun,3,1752
248,2018-09-06,Bursa,8,1002
249,2018-09-07,Mardin,12,1621
250,2018-09-08,Zonguldak,7,1243
251,2018-09-09,Karaman,17,1021
252,2018-09-10,Kilis,4,1568
253,2018-09-11,Çorum,5,1324
254,2018-09-12,Gümüşhane,5,1616
255,2018-09-13,Uşak,16,1107
256,2018-09-14,Şanlıurfa,11,1470
257,2018-09-15,Giresun,12,1592
258,2018-09-16,Edirne,10,1764
259,2018-09-17,Sivas,16,1277
260,2018-09-18,Ağrı,11,1044
261,2018-09-19,Bartın,8,1713
262,2018-09-20,Sakarya,10,1078
263,2018-09-21,Gümüşhane,10,1543
264,2018-09-22,Rize,8,1192
265,2018-09-23,Kocaeli,5,1750
266,2018-09-24,Tekirdağ,5,1606
267,2018-09-25,Bartın,8,1256
268,2018-09-26,Siirt,1,1041
269,2018-09-27,Yalova,9,1732
270,2018-09-28,Çorum,15,1421
271,2018-09-29,Antalya,7,1275
272,2018-09-30,Balıkesir,1,1715
273,2018-10-01,Kayseri,17,1022
274,2018-10-02,Sakarya,16,1772
275,2018-10-03,Aksaray,5,1255
276,2018-10-04,Yalova,5,1814
277,2018-10-05,Şırnak,15,1114
278,2018-10-06,Bilecik,16,1274
279,2018-10-07,Kocaeli,15,1630
280,2018-10-08,İzmir,8,1536
281,2018-10-09,Iğdır,11,1473
282,2018-10-10,Diyarbakır,2,1966
283,2018-10-11,Bingöl,7,1454
284,2018-10-12,Kilis,14,1112
285,2018-10-13,Sivas,1,1731
286,2018-10-14,Edirne,9,1831
287,2018-10-15,Rize,15,1830
288,2018-10-16,Düzce,5,1687
289,2018-10-17,İçel (Mersin),14,1018
290,2018-10-18,Eskişehir,13,1077
291,2018-10-19,Batman,8,1424
292,2018-10-20,İzmir,10,1277
293,2018-10-21,Ordu,2,1370
294,2018-10-22,Yalova,1,1925
295,2018-10-23,Eskişehir,10,1785
296,2018-10-24,Erzincan,16,1688
297,2018-10-25,Tekirdağ,3,1041
298,2018-10-26,Aydın,14,1569
299,2018-10-27,Artvin,13,1586
300,2018-10-28,Yozgat,12,1456
301,2018-10-29,Bilecik,7,1046
302,2018-10-30,Burdur,5,1329
303,2018-10-31,Hatay,3,1433
304,2018-11-01,Malatya,7,1883
305,2018-11-02,Aksaray,8,1513
306,2018-11-03,Çorum,10,1877
307,2018-11-04,Bayburt,3,1132
308,2018-11-05,Bingöl,1,1275
309,2018-11-06,Kütahya,14,1798
310,2018-11-07,Denizli,17,1703
311,2018-11-08,Bartın,9,1920
312,2018-11-09,Karaman,2,1662
313,2018-11-10,Mardin,3,1915
314,2018-11-11,Muş,1,1499
315,2018-11-12,Bolu,6,1601
316,2018-11-13,Şanlıurfa,10,1623
317,2018-11-14,Ardahan,4,1127
318,2018-11-15,Batman,17,1933
319,2018-11-16,Kırklareli,14,1900
320,2018-11-17,Tunceli,8,1524
321,2018-11-18,Gaziantep,6,1261
322,2018-11-19,Şırnak,3,1424
323,2018-11-20,Isparta,17,1950
324,2018-11-21,Erzurum,16,1033
325,2018-11-22,Kırıkkale,1,1367
326,2018-11-23,Isparta,6,1804
327,2018-11-24,Van,4,1984
328,2018-11-25,Malatya,11,1586
329,2018-11-26,Gümüşhane,12,1969
330,2018-11-27,Adana,4,1038
331,2018-11-28,Niğde,9,1455
332,2018-11-29,Giresun,16,1228
333,2018-11-30,Adıyaman,8,1775
334,2018-12-01,Bolu,6,1297
335,2018-12-02,Kars,1,1187
336,2018-12-03,Şanlıurfa,17,1495
337,2018-12-04,Karabük,7,1639
338,2018-12-05,Tokat,1,1724
339,2018-12-06,Bitlis,16,1821
340,2018-12-07,Gaziantep,14,1364
341,2018-12-08,Gümüşhane,6,1528
342,2018-12-09,Ankara,1,1179
343,2018-12-10,Konya,6,1314
344,2018-12-11,İçel (Mersin),3,1466
345,2018-12-12,Çankırı,3,1785
346,2018-12-13,Edirne,10,1521
347,2018-12-14,Yozgat,11,1579
348,2018-12-15,Gaziantep,17,1049
349,2018-12-16,Van,4,1329
350,2018-12-17,Sinop,13,1631
351,2018-12-18,Muş,12,1713
352,2018-12-19,Ankara,1,1478
353,2018-12-20,Amasya,3,1951
354,2018-12-21,Konya,10,1936
355,2018-12-22,Van,17,1096
356,2018-12-23,Gaziantep,1,1899
357,2018-12-24,Bayburt,13,1477
358,2018-12-25,Kırşehir,12,1421
359,2018-12-26,İçel (Mersin),1,1240
360,2018-12-27,Çorum,10,1430
361,2018-12-28,Mardin,14,1883
362,2018-12-29,Batman,13,1395
363,2018-12-30,Şanlıurfa,5,1772
